[
    {
        "id" : 1,
        "name" : "Baad Baba Is Terhan Se Zahra Pay Tootay Sitam",
        "code" : "Jack",
        "artist" : "Kate",
        "created" : "2019-01-23"
    },
    {
        "id" : 2,
        "name" : "This is test",
        "code" : "Salah",
        "artist" : "Abraham",
        "created" : "2019-03-23"
    }
]