<?xml version="1.0" encoding="UTF-8" standalone="no"?>
<svg width="9px" height="6px" viewBox="0 0 9 6" version="1.1" xmlns="http://www.w3.org/2000/svg" xmlns:xlink="http://www.w3.org/1999/xlink">
    <!-- Generator: Sketch 40.3 (33839) - http://www.bohemiancoding.com/sketch -->
    <title>Shape</title>
    <desc>Created with Sketch.</desc>
    <defs/>
    <g id="Home" stroke="none" stroke-width="1" fill="none" fill-rule="evenodd">
        <g id="Change-order" transform="translate(-544.000000, -152.000000)" fill="#A2A2A2">
            <g id="Group-2">
                <g id="Group" transform="translate(540.000000, 145.000000)">
                    <path d="M4.09643592,7.95356408 L8.29643592,12.1528444 C8.34465387,12.2176148 8.4259767,12.25 8.49074709,12.25 C8.57135024,12.25 8.65195339,12.2176148 8.69945168,12.1528444 L12.9001714,7.95356408 C12.9649417,7.88879369 12.9973269,7.8240233 12.9973269,7.74342015 C12.9973269,7.67864976 12.9649417,7.59804661 12.9001714,7.53327622 L12.4489376,7.09787526 C12.3985607,7.0323852 12.3193968,7 12.2546265,7 C12.1733036,7 12.0927005,7.0323852 12.0444825,7.09715559 L8.48930775,10.6343386 L4.95356408,7.09787526 C4.88807402,7.0323852 4.82330363,7 4.74270048,7 C4.66209733,7 4.59732694,7.0323852 4.53255655,7.09715559 L4.09643592,7.53255655 C4.03166552,7.59732694 4,7.67936943 4,7.74413982 C4,7.82474297 4.03166552,7.88951337 4.09643592,7.95428376" id="Shape" transform="translate(8.498663, 9.625000) rotate(180.000000) translate(-8.498663, -9.625000) "/>
                </g>
            </g>
        </g>
    </g>
</svg>