<?xml version="1.0" encoding="UTF-8"?>
<svg width="22" height="22" version="1.1" id="Layer_1" xmlns="http://www.w3.org/2000/svg" xmlns:xlink="http://www.w3.org/1999/xlink" x="0px" y="0px" viewBox="0 0 18 16" style="enable-background:new 0 0 18 16;" xml:space="preserve">
<style type="text/css">
    .st0{fill-rule:evenodd;clip-rule:evenodd;fill:#D54236;}
</style>
<path class="st0" d="M0,15.8L9,0.2l9,15.6H0z M10.4,5.9H7.6V10h2.8V5.9z M7.6,11.8V14h2.8v-2.2H7.6z"/>
</svg>